  <TimeSheetEditRow   blanktimesheet = {this.props.blanktimesheet} />



  timesheets={TIMESHEETS}


  "id": text.  ,
  "text":  text.  ,
  "complete":  text.  ,
  "KSR": text.  ,
  "Ticket":  text.  ,
  "ReasonCode":  text.  ,
  "Description":  text.  ,
  "Sat": text.  ,
  "Sun": text.  ,
  "Mon":  text.  ,
  "Tue":  text.  ,
  "Wed":  text.  ,
  "Thu": text.  ,
  "Fri": text.  ,
  "Total":  text.  ,


  <th>Edit</th>

  <td>


  <Button
     bsStyle="primary"
     bsSize="small"
     onClick={this.props.openModalEdit.bind(this.props.timesheet.id)}
   >
     Edit
   </Button>
  </td>

  Header-----`

  <button >Load Data From Domino Via REST Service!</button>
  <p>
   <Button bsStyle="primary"  onClick={this.addNewTimeSheetAdd}>Add New Line!</Button>
  <button onClick={this.addNewTimeSheetAdd}>Add New Line!</button>
  </p>
  <p>


  <Button
     bsStyle="primary"
     bsSize="large"
     onClick={this.props.openModalEdit}
   >
     Open Edit
   </Button>
 </p>


 const temp = {
 "id": id,
 "text": "Operator",
 "complete": true,
 "KSR": "Z-Vacation",
 "Ticket": "342092626-X",
 "ReasonCode": "odio porttitor id consequat in",
 "Description": "commodo placerat praesent blandit nam nulla integer pede justo",
 "Sat": 5,
 "Sun": 5,
 "Mon": 8,
 "Tue": 6,
 "Wed": 7,
 "Thu": 4,
 "Fri": 8,
 "Total": 7
 };
//    const tempsheets = this.state.timesheets;
//      console.log("AddNewTimeSheet Begin");
//      console.log(tempsheets);
//      tempsheets.push(text)
 //this.state.timesheets.push(text)
//      console.log(this.state.timesheets);

//tempsheets.push(text );
//    this.setState({
//      timesheets: tempsheets
//    });
//    console.log(this.state.timesheets);
//    console.log("AddNewTimeSheet END");
//  this.setState.tempsheets;
// this.todos.push(temp);


[{"Thu":"3","Total":"27","Tue":"6","Sat":"1","KSR":"17001-BG","Ticket":"020894866-X","Sun":"2","Mon":"6","text":"Sales Representative","ReasonCode":"Maint: Patches\/updates","Wed":"5","complete":"false","id":"013941162-3","Description":"XXXXXmolestie lorem quisque ut erat curabitur","Fri":"2"},{"Thu":"5","Total":"47","Tue":"5","Sat":"5","KSR":"TA-BA","Ticket":"486376525-8","Sun":"3","Mon":"3","text":"Systems Administrator II","ReasonCode":"Ops: Audit requests","Wed":"4","complete":"false","id":"765237018-3","Description":"XXXXXvel pede morbi porttitor lorem id ligula","Fri":"4"}]

Date 04/07/2017
MDQvMDcvMjAxNw==

Date 04/14/2017
MDQvMTQvMjAxNw==

CN=Loren Pusey/O=kubota
Q049TG9yZW4gUHVzZXkvTz1rdWJvdGE=

http://corp1.kubota.com/Development/KTAWeb.nsf/TimeSheet.xsp?Date="MDQvMDcvMjAxNw=="&UserName="Q049TG9yZW4gUHVzZXkvTz1rdWJvdGE="



plugins: debug ? [] : [
  new webpack.optimize.DedupePlugin(),
  new webpack.optimize.OccurenceOrderPlugin(),
  new webpack.optimize.UglifyJsPlugin({ mangle: false, sourcemap: false }),
]

new webpack.optimize.UglifyJsPlugin({
  compress:{
    warnings: true,

  }
})


  devtool: debug ? "inline-sourcemap" : null,


  <Button
     bsStyle="primary"
     bsSize="large"
     onClick={this.openModalNew}
   >
     Open Time Sheet
   </Button>
